Problem set 4
…
population_tidy

# A tibble: 104 × 4
   state_name    year population state
   <chr>        <int>      <dbl> <chr>
 1 Oklahoma      2020    3962031 OK   
 2 Oklahoma      2021    3986639 OK   
 3 Nebraska      2020    1961455 NE   
 4 Nebraska      2021    1963692 NE   
 5 Hawaii        2020    1451911 HI   
 6 Hawaii        2021    1441553 HI   
 7 South Dakota  2020     887099 SD   
 8 South Dakota  2021     895376 SD   
 9 Tennessee     2020    6920119 TN   
10 Tennessee     2021    6975218 TN   
# ℹ 94 more rows
…
regions <- regions |>
  filter(state_name %in% c(state.name, "District of Columbia", "Puerto Rico")) |>
  mutate(region_name = ifelse(region_name == 
    "New York and New Jersey, Puerto Rico, Virgin Islands",
    "NY/NJ & Territories",
    region_name))

regions

# A tibble: 52 × 3
   state_name    region region_name        
   <chr>          <int> <chr>              
 1 Connecticut        1 New England        
 2 Maine              1 New England        
 3 Massachusetts      1 New England        
 4 New Hampshire      1 New England        
 5 Rhode Island       1 New England        
 6 Vermont            1 New England        
 7 New Jersey         2 NY/NJ & Territories
 8 New York           2 NY/NJ & Territories
 9 Puerto Rico        2 NY/NJ & Territories
10 Delaware           3 Mid-Atlantic       
# ℹ 42 more rows

Add a region and region name columns to the population data frame.

population_with_state_name <- population_tidy |>
  left_join(regions, by = "state_name")
population_with_state_name

# A tibble: 104 × 6
   state_name    year population state region region_name    
   <chr>        <int>      <dbl> <chr>  <int> <chr>          
 1 Oklahoma      2020    3962031 OK         6 South Central  
 2 Oklahoma      2021    3986639 OK         6 South Central  
 3 Nebraska      2020    1961455 NE         7 Central Plains 
 4 Nebraska      2021    1963692 NE         7 Central Plains 
 5 Hawaii        2020    1451911 HI         9 Pacific        
 6 Hawaii        2021    1441553 HI         9 Pacific        
 7 South Dakota  2020     887099 SD         8 Mountain States
 8 South Dakota  2021     895376 SD         8 Mountain States
 9 Tennessee     2020    6920119 TN         4 Southeast      
10 Tennessee     2021    6975218 TN         4 Southeast      
# ℹ 94 more rows

From reading https://data.cdc.gov/ we learn the endpoint https://data.cdc.gov/resource/pwn4-m3yp.json provides state level data from SARS-COV2 cases. Use the httr2 tools you have learned to download this into a data frame. Is all the data there? If not, comment on why.

api3 <- "https://data.cdc.gov/resource/pwn4-m3yp.json"
resp1 <- request(api3) |> req_perform()

cases_raw <- resp_body_json(resp1, simplifyVector = TRUE) |> as_tibble()

cases_raw

# A tibble: 1,000 × 10
   date_updated         state start_date end_date tot_cases new_cases tot_deaths
   <chr>                <chr> <chr>      <chr>    <chr>     <chr>     <chr>     
 1 2023-02-23T00:00:00… AZ    2023-02-1… 2023-02… 2434631.0 3716.0    33042.0   
 2 2022-12-22T00:00:00… LA    2022-12-1… 2022-12… 1507707.0 4041.0    18345.0   
 3 2023-02-23T00:00:00… GA    2023-02-1… 2023-02… 3061141.0 5298.0    42324.0   
 4 2023-03-30T00:00:00… LA    2023-03-2… 2023-03… 1588259.0 2203.0    18858.0   
 5 2023-02-02T00:00:00… LA    2023-01-2… 2023-02… 1548508.0 5725.0    18572.0   
 6 2023-03-23T00:00:00… LA    2023-03-1… 2023-03… 1580709.0 1961.0    18835.0   
 7 2023-04-27T00:00:00… LA    2023-04-2… 2023-04… 1597070.0 1884.0    18937.0   
 8 2023-03-16T00:00:00… NV    2023-03-0… 2023-03… 891702.0  1233.0    11937.0   
 9 2023-05-11T00:00:00… FL    2023-05-0… 2023-05… 7572282.0 6937.0    88248.0   
10 2022-10-27T00:00:00… NYC   2022-10-2… 2022-10… 2928439.0 14590.0   42863.0   
# ℹ 990 more rows
# ℹ 3 more variables: new_deaths <chr>, new_historic_cases <chr>,
#   new_historic_deaths <chr>
It does not return all data but only gives the first 1,000 rows because of request().

We see exactly 1,000 rows. We should be seeing over \(52 \times 3\) rows per state.

The reason you see exactly 1,000 rows is because CDC has a default limit. You can change this limit by adding $limit=10000000000 to the request. Rewrite the previous request to ensure that you receive all the data. Then wrangle the resulting data frame to produce a data frame with columns state, date (should be the end date) and cases. Make sure the cases are numeric and the dates are in Date ISO-8601 format.

api3 <- "https://data.cdc.gov/resource/pwn4-m3yp.json"
cases_raw2 <- request(api3) |>
  req_url_query(`$limit` = 10000000000) |>
  req_perform() |>
  resp_body_json(simplifyVector = TRUE) |>
  as_tibble()
cases_raw2

# A tibble: 10,380 × 10
   date_updated         state start_date end_date tot_cases new_cases tot_deaths
   <chr>                <chr> <chr>      <chr>    <chr>     <chr>     <chr>     
 1 2023-02-23T00:00:00… AZ    2023-02-1… 2023-02… 2434631.0 3716.0    33042.0   
 2 2022-12-22T00:00:00… LA    2022-12-1… 2022-12… 1507707.0 4041.0    18345.0   
 3 2023-02-23T00:00:00… GA    2023-02-1… 2023-02… 3061141.0 5298.0    42324.0   
 4 2023-03-30T00:00:00… LA    2023-03-2… 2023-03… 1588259.0 2203.0    18858.0   
 5 2023-02-02T00:00:00… LA    2023-01-2… 2023-02… 1548508.0 5725.0    18572.0   
 6 2023-03-23T00:00:00… LA    2023-03-1… 2023-03… 1580709.0 1961.0    18835.0   
 7 2023-04-27T00:00:00… LA    2023-04-2… 2023-04… 1597070.0 1884.0    18937.0   
 8 2023-03-16T00:00:00… NV    2023-03-0… 2023-03… 891702.0  1233.0    11937.0   
 9 2023-05-11T00:00:00… FL    2023-05-0… 2023-05… 7572282.0 6937.0    88248.0   
10 2022-10-27T00:00:00… NYC   2022-10-2… 2022-10… 2928439.0 14590.0   42863.0   
# ℹ 10,370 more rows
# ℹ 3 more variables: new_deaths <chr>, new_historic_cases <chr>,
#   new_historic_deaths <chr>

cases <- cases_raw2 |>
  transmute(
    state = state,
    date  = as.Date(end_date),          
    cases = suppressWarnings(as.numeric(new_cases)) 
  ) |>
  arrange(state, date)

cases

# A tibble: 10,380 × 3
   state date       cases
   <chr> <date>     <dbl>
 1 AK    2020-01-22     0
 2 AK    2020-01-29     0
 3 AK    2020-02-05     0
 4 AK    2020-02-12     0
 5 AK    2020-02-19     0
 6 AK    2020-02-26     0
 7 AK    2020-03-04     0
 8 AK    2020-03-11     0
 9 AK    2020-03-18    11
10 AK    2020-03-25    52
# ℹ 10,370 more rows
…
raw_deaths <- request(deaths_url) |>
  req_url_query(`$limit` = 10000000000) |>
  req_perform() |>
  resp_body_json(simplifyVector = TRUE) |>
  as_tibble()

deaths <- raw_deaths |>
  (\(df) {
    df$date   <- as.Date(df$end_date)
    df$deaths <- suppressWarnings(as.numeric(df$covid_19_deaths))
    df[, c("state", "date", "deaths")]
  })()
deaths

# A tibble: 137,700 × 3
   state         date        deaths
   <chr>         <date>       <dbl>
 1 United States 2023-09-23 1146774
 2 United States 2023-09-23     519
 3 United States 2023-09-23    1696
 4 United States 2023-09-23     285
 5 United States 2023-09-23     509
 6 United States 2023-09-23    3021
 7 United States 2023-09-23    7030
 8 United States 2023-09-23   12401
 9 United States 2023-09-23   19886
10 United States 2023-09-23   30108
# ℹ 137,690 more rows
…
